test/wave.vcd
$date
	Sat Nov  2 15:21:11 2024
$end
$version
	Icarus Verilog
$end
$timescale
	1ns
$end
$scope module testbench $end
$var wire 1 ! dout $end
$var parameter 32 " CYCLE $end
$var parameter 32 # END_TIME $end
$var reg 1 $ clk $end
$scope module mod $end
$var wire 1 $ clk $end
$var wire 1 ! dout $end
$var wire 1 % sub $end
$var parameter 3 & addalu $end
$var parameter 3 ' andalu $end
$var parameter 3 ( subalu $end
$upscope $end
$upscope $end
$enddefinitions $end
$comment Show the parameter values. $end
$dumpall
b1 (
b10 '
b0 &
b11001000 #
b10 "
$end
#0
$dumpvars
1%
0$
0!
$end
#1
1!
1$
#2
0!
0$
#3
1!
1$
#4
0!
0$
#5
1!
1$
#6
0!
0$
#7
1!
1$
#8
0!
0$
#9
1!
1$
#10
0!
0$
#11
1!
1$
#12
0!
0$
#13
1!
1$
#14
0!
0$
#15
1!
1$
#16
0!
0$
#17
1!
1$
#18
0!
0$
#19
1!
1$
#20
0!
0$
#21
1!
1$
#22
0!
0$
#23
1!
1$
#24
0!
0$
#25
1!
1$
#26
0!
0$
#27
1!
1$
#28
0!
0$
#29
1!
1$
#30
0!
0$
#31
1!
1$
#32
0!
0$
#33
1!
1$
#34
0!
0$
#35
1!
1$
#36
0!
0$
#37
1!
1$
#38
0!
0$
#39
1!
1$
#40
0!
0$
#41
1!
1$
#42
0!
0$
#43
1!
1$
#44
0!
0$
#45
1!
1$
#46
0!
0$
#47
1!
1$
#48
0!
0$
#49
1!
1$
#50
0!
0$
#51
1!
1$
#52
0!
0$
#53
1!
1$
#54
0!
0$
#55
1!
1$
#56
0!
0$
#57
1!
1$
#58
0!
0$
#59
1!
1$
#60
0!
0$
#61
1!
1$
#62
0!
0$
#63
1!
1$
#64
0!
0$
#65
1!
1$
#66
0!
0$
#67
1!
1$
#68
0!
0$
#69
1!
1$
#70
0!
0$
#71
1!
1$
#72
0!
0$
#73
1!
1$
#74
0!
0$
#75
1!
1$
#76
0!
0$
#77
1!
1$
#78
0!
0$
#79
1!
1$
#80
0!
0$
#81
1!
1$
#82
0!
0$
#83
1!
1$
#84
0!
0$
#85
1!
1$
#86
0!
0$
#87
1!
1$
#88
0!
0$
#89
1!
1$
#90
0!
0$
#91
1!
1$
#92
0!
0$
#93
1!
1$
#94
0!
0$
#95
1!
1$
#96
0!
0$
#97
1!
1$
#98
0!
0$
#99
1!
1$
#100
0!
0$
#101
1!
1$
#102
0!
0$
#103
1!
1$
#104
0!
0$
#105
1!
1$
#106
0!
0$
#107
1!
1$
#108
0!
0$
#109
1!
1$
#110
0!
0$
#111
1!
1$
#112
0!
0$
#113
1!
1$
#114
0!
0$
#115
1!
1$
#116
0!
0$
#117
1!
1$
#118
0!
0$
#119
1!
1$
#120
0!
0$
#121
1!
1$
#122
0!
0$
#123
1!
1$
#124
0!
0$
#125
1!
1$
#126
0!
0$
#127
1!
1$
#128
0!
0$
#129
1!
1$
#130
0!
0$
#131
1!
1$
#132
0!
0$
#133
1!
1$
#134
0!
0$
#135
1!
1$
#136
0!
0$
#137
1!
1$
#138
0!
0$
#139
1!
1$
#140
0!
0$
#141
1!
1$
#142
0!
0$
#143
1!
1$
#144
0!
0$
#145
1!
1$
#146
0!
0$
#147
1!
1$
#148
0!
0$
#149
1!
1$
#150
0!
0$
#151
1!
1$
#152
0!
0$
#153
1!
1$
#154
0!
0$
#155
1!
1$
#156
0!
0$
#157
1!
1$
#158
0!
0$
#159
1!
1$
#160
0!
0$
#161
1!
1$
#162
0!
0$
#163
1!
1$
#164
0!
0$
#165
1!
1$
#166
0!
0$
#167
1!
1$
#168
0!
0$
#169
1!
1$
#170
0!
0$
#171
1!
1$
#172
0!
0$
#173
1!
1$
#174
0!
0$
#175
1!
1$
#176
0!
0$
#177
1!
1$
#178
0!
0$
#179
1!
1$
#180
0!
0$
#181
1!
1$
#182
0!
0$
#183
1!
1$
#184
0!
0$
#185
1!
1$
#186
0!
0$
#187
1!
1$
#188
0!
0$
#189
1!
1$
#190
0!
0$
#191
1!
1$
#192
0!
0$
#193
1!
1$
#194
0!
0$
#195
1!
1$
#196
0!
0$
#197
1!
1$
#198
0!
0$
#199
1!
1$
