wave.vcd
$date
	Sat Nov  2 23:58:40 2024
$end
$version
	Icarus Verilog
$end
$timescale
	1ns
$end
$scope module ucsbece154a_top_tb $end
$var wire 32 ! reg_a0 [31:0] $end
$var wire 32 " reg_a1 [31:0] $end
$var wire 32 # reg_a2 [31:0] $end
$var wire 32 $ reg_a3 [31:0] $end
$var wire 32 % reg_a4 [31:0] $end
$var wire 32 & reg_a5 [31:0] $end
$var wire 32 ' reg_a6 [31:0] $end
$var wire 32 ( reg_a7 [31:0] $end
$var wire 32 ) reg_gp [31:0] $end
$var wire 32 * reg_ra [31:0] $end
$var wire 32 + reg_s0 [31:0] $end
$var wire 32 , reg_s1 [31:0] $end
$var wire 32 - reg_s10 [31:0] $end
$var wire 32 . reg_s11 [31:0] $end
$var wire 32 / reg_s2 [31:0] $end
$var wire 32 0 reg_s3 [31:0] $end
$var wire 32 1 reg_s4 [31:0] $end
$var wire 32 2 reg_s5 [31:0] $end
$var wire 32 3 reg_s6 [31:0] $end
$var wire 32 4 reg_s7 [31:0] $end
$var wire 32 5 reg_s8 [31:0] $end
$var wire 32 6 reg_s9 [31:0] $end
$var wire 32 7 reg_sp [31:0] $end
$var wire 32 8 reg_t0 [31:0] $end
$var wire 32 9 reg_t1 [31:0] $end
$var wire 32 : reg_t2 [31:0] $end
$var wire 32 ; reg_t3 [31:0] $end
$var wire 32 < reg_t4 [31:0] $end
$var wire 32 = reg_t5 [31:0] $end
$var wire 32 > reg_t6 [31:0] $end
$var wire 32 ? reg_tp [31:0] $end
$var wire 32 @ reg_zero [31:0] $end
$var parameter 32 A CYCLE $end
$var parameter 32 B END_TIME $end
$var reg 1 C clk $end
$var reg 1 D reset $end
$var integer 32 E i [31:0] $end
$scope module top $end
$var wire 1 C clk $end
$var wire 1 D reset $end
$var wire 32 F writedata [31:0] $end
$var wire 32 G readdata [31:0] $end
$var wire 32 H pc [31:0] $end
$var wire 32 I instr [31:0] $end
$var wire 32 J dataadr [31:0] $end
$var wire 1 K MemWrite $end
$scope module dmem $end
$var wire 1 C clk $end
$var wire 32 L rd_o [31:0] $end
$var wire 1 K we_i $end
$var wire 32 M wd_i [31:0] $end
$var wire 32 N a_i [31:0] $end
$var parameter 32 O ADDR_WIDTH $end
$var parameter 32 P NUM_WORDS $end
$upscope $end
$scope module imem $end
$var wire 32 Q rd_o [31:0] $end
$var wire 32 R a_i [31:0] $end
$var parameter 32 S ADDR_WIDTH $end
$var parameter 32 T NUM_WORDS $end
$upscope $end
$scope module riscv $end
$var wire 1 C clk $end
$var wire 32 U instr_i [31:0] $end
$var wire 32 V readdata_i [31:0] $end
$var wire 1 D reset $end
$var wire 1 W zero $end
$var wire 32 X writedata_o [31:0] $end
$var wire 32 Y pc_o [31:0] $end
$var wire 32 Z aluresult_o [31:0] $end
$var wire 2 [ ResultSrc [1:0] $end
$var wire 1 \ RegWrite $end
$var wire 1 ] PCSrc $end
$var wire 1 K MemWrite_o $end
$var wire 3 ^ ImmSrc [2:0] $end
$var wire 1 _ ALUSrc $end
$var wire 3 ` ALUControl [2:0] $end
$scope module c $end
$var wire 1 a RtypeSub $end
$var wire 3 b funct3_i [2:0] $end
$var wire 1 c funct7b5_i $end
$var wire 7 d op_i [6:0] $end
$var wire 1 W zero_i $end
$var wire 1 e jump $end
$var wire 1 f branch $end
$var wire 2 g ResultSrc_o [1:0] $end
$var wire 1 \ RegWrite_o $end
$var wire 1 ] PCSrc_o $end
$var wire 1 K MemWrite_o $end
$var wire 3 h ImmSrc_o [2:0] $end
$var wire 1 _ ALUSrc_o $end
$var wire 2 i ALUOp [1:0] $end
$var parameter 1 j ALUSrc_imm $end
$var parameter 1 k ALUSrc_reg $end
$var parameter 3 l ALUcontrol_add $end
$var parameter 3 m ALUcontrol_and $end
$var parameter 3 n ALUcontrol_or $end
$var parameter 3 o ALUcontrol_slt $end
$var parameter 3 p ALUcontrol_sub $end
$var parameter 2 q ALUop_beq $end
$var parameter 2 r ALUop_mem $end
$var parameter 2 s ALUop_other $end
$var parameter 2 t ResultSrc_ALU $end
$var parameter 2 u ResultSrc_jal $end
$var parameter 2 v ResultSrc_load $end
$var parameter 2 w ResultSrc_lui $end
$var parameter 3 x imm_Btype $end
$var parameter 3 y imm_Itype $end
$var parameter 3 z imm_Jtype $end
$var parameter 3 { imm_Stype $end
$var parameter 3 | imm_Utype $end
$var parameter 7 } instr_ItypeALU_op $end
$var parameter 7 ~ instr_Rtype_op $end
$var parameter 3 !" instr_addsub_funct3 $end
$var parameter 3 "" instr_and_funct3 $end
$var parameter 7 #" instr_beq_op $end
$var parameter 7 $" instr_jal_op $end
$var parameter 7 %" instr_lui_op $end
$var parameter 7 &" instr_lw_op $end
$var parameter 3 '" instr_or_funct3 $end
$var parameter 3 (" instr_slt_funct3 $end
$var parameter 7 )" instr_sw_op $end
$var reg 3 *" ALUControl_o [2:0] $end
$var reg 12 +" controls [11:0] $end
$upscope $end
$scope module dp $end
$var wire 3 ," ALUControl_i [2:0] $end
$var wire 1 _ ALUSrc_i $end
$var wire 3 -" ImmSrc_i [2:0] $end
$var wire 1 ] PCSrc_i $end
$var wire 1 \ RegWrite_i $end
$var wire 2 ." ResultSrc_i [1:0] $end
$var wire 1 C clk $end
$var wire 32 /" instr_i [31:0] $end
$var wire 1 0" jump $end
$var wire 32 1" readdata_i [31:0] $end
$var wire 1 D reset $end
$var wire 1 W zero_o $end
$var wire 32 2" writedata_o [31:0] $end
$var wire 32 3" aluresult_o [31:0] $end
$var wire 32 4" SrcB [31:0] $end
$var wire 32 5" SrcA [31:0] $end
$var wire 32 6" PCTarget [31:0] $end
$var wire 1 7" PCSrc $end
$var wire 32 8" PCPlus4 [31:0] $end
$var wire 32 9" PCNext [31:0] $end
$var parameter 1 :" ALUSrc_imm $end
$var parameter 1 ;" ALUSrc_reg $end
$var parameter 3 <" ALUcontrol_add $end
$var parameter 3 =" ALUcontrol_and $end
$var parameter 3 >" ALUcontrol_or $end
$var parameter 3 ?" ALUcontrol_slt $end
$var parameter 3 @" ALUcontrol_sub $end
$var parameter 2 A" ALUop_beq $end
$var parameter 2 B" ALUop_mem $end
$var parameter 2 C" ALUop_other $end
$var parameter 2 D" ResultSrc_ALU $end
$var parameter 2 E" ResultSrc_jal $end
$var parameter 2 F" ResultSrc_load $end
$var parameter 2 G" ResultSrc_lui $end
$var parameter 3 H" imm_Btype $end
$var parameter 3 I" imm_Itype $end
$var parameter 3 J" imm_Jtype $end
$var parameter 3 K" imm_Stype $end
$var parameter 3 L" imm_Utype $end
$var parameter 7 M" instr_ItypeALU_op $end
$var parameter 7 N" instr_Rtype_op $end
$var parameter 3 O" instr_addsub_funct3 $end
$var parameter 3 P" instr_and_funct3 $end
$var parameter 7 Q" instr_beq_op $end
$var parameter 7 R" instr_jal_op $end
$var parameter 7 S" instr_lui_op $end
$var parameter 7 T" instr_lw_op $end
$var parameter 3 U" instr_or_funct3 $end
$var parameter 3 V" instr_slt_funct3 $end
$var parameter 7 W" instr_sw_op $end
$var reg 32 X" ImmExt [31:0] $end
$var reg 32 Y" Result [31:0] $end
$var reg 32 Z" pc_o [31:0] $end
$scope module alu $end
$var wire 3 [" alucontrol_i [2:0] $end
$var wire 32 \" b_i [31:0] $end
$var wire 1 W zero_o $end
$var wire 32 ]" a_i [31:0] $end
$var parameter 1 ^" ALUSrc_imm $end
$var parameter 1 _" ALUSrc_reg $end
$var parameter 3 `" ALUcontrol_add $end
$var parameter 3 a" ALUcontrol_and $end
$var parameter 3 b" ALUcontrol_or $end
$var parameter 3 c" ALUcontrol_slt $end
$var parameter 3 d" ALUcontrol_sub $end
$var parameter 2 e" ALUop_beq $end
$var parameter 2 f" ALUop_mem $end
$var parameter 2 g" ALUop_other $end
$var parameter 2 h" ResultSrc_ALU $end
$var parameter 2 i" ResultSrc_jal $end
$var parameter 2 j" ResultSrc_load $end
$var parameter 2 k" ResultSrc_lui $end
$var parameter 3 l" imm_Btype $end
$var parameter 3 m" imm_Itype $end
$var parameter 3 n" imm_Jtype $end
$var parameter 3 o" imm_Stype $end
$var parameter 3 p" imm_Utype $end
$var parameter 7 q" instr_ItypeALU_op $end
$var parameter 7 r" instr_Rtype_op $end
$var parameter 3 s" instr_addsub_funct3 $end
$var parameter 3 t" instr_and_funct3 $end
$var parameter 7 u" instr_beq_op $end
$var parameter 7 v" instr_jal_op $end
$var parameter 7 w" instr_lui_op $end
$var parameter 7 x" instr_lw_op $end
$var parameter 3 y" instr_or_funct3 $end
$var parameter 3 z" instr_slt_funct3 $end
$var parameter 7 {" instr_sw_op $end
$var reg 32 |" result_o [31:0] $end
$upscope $end
$scope module rf $end
$var wire 32 }" a0 [31:0] $end
$var wire 32 ~" a1 [31:0] $end
$var wire 5 !# a1_i [4:0] $end
$var wire 32 "# a2 [31:0] $end
$var wire 5 ## a2_i [4:0] $end
$var wire 32 $# a3 [31:0] $end
$var wire 5 %# a3_i [4:0] $end
$var wire 32 &# a4 [31:0] $end
$var wire 32 '# a5 [31:0] $end
$var wire 32 (# a6 [31:0] $end
$var wire 32 )# a7 [31:0] $end
$var wire 1 C clk $end
$var wire 32 *# gp [31:0] $end
$var wire 32 +# ra [31:0] $end
$var wire 32 ,# s0 [31:0] $end
$var wire 32 -# s1 [31:0] $end
$var wire 32 .# s10 [31:0] $end
$var wire 32 /# s11 [31:0] $end
$var wire 32 0# s2 [31:0] $end
$var wire 32 1# s3 [31:0] $end
$var wire 32 2# s4 [31:0] $end
$var wire 32 3# s5 [31:0] $end
$var wire 32 4# s6 [31:0] $end
$var wire 32 5# s7 [31:0] $end
$var wire 32 6# s8 [31:0] $end
$var wire 32 7# s9 [31:0] $end
$var wire 32 8# sp [31:0] $end
$var wire 32 9# t0 [31:0] $end
$var wire 32 :# t1 [31:0] $end
$var wire 32 ;# t2 [31:0] $end
$var wire 32 <# t3 [31:0] $end
$var wire 32 =# t4 [31:0] $end
$var wire 32 ># t5 [31:0] $end
$var wire 32 ?# t6 [31:0] $end
$var wire 32 @# tp [31:0] $end
$var wire 32 A# wd3_i [31:0] $end
$var wire 1 \ we3_i $end
$var wire 32 B# zero [31:0] $end
$var wire 32 C# rd2_o [31:0] $end
$var wire 32 D# rd1_o [31:0] $end
$upscope $end
$upscope $end
$upscope $end
$upscope $end
$upscope $end
$enddefinitions $end
$comment Show the parameter values. $end
$dumpall
b100011 {"
b10 z"
b110 y"
b11 x"
b110111 w"
b1101111 v"
b1100011 u"
b111 t"
b0 s"
b110011 r"
b10011 q"
b100 p"
b1 o"
b11 n"
b0 m"
b10 l"
b11 k"
b1 j"
b10 i"
b0 h"
b10 g"
b0 f"
b1 e"
b1 d"
b101 c"
b11 b"
b10 a"
b0 `"
0_"
1^"
b100011 W"
b10 V"
b110 U"
b11 T"
b110111 S"
b1101111 R"
b1100011 Q"
b111 P"
b0 O"
b110011 N"
b10011 M"
b100 L"
b1 K"
b11 J"
b0 I"
b10 H"
b11 G"
b1 F"
b10 E"
b0 D"
b10 C"
b0 B"
b1 A"
b1 @"
b101 ?"
b11 >"
b10 ="
b0 <"
0;"
1:"
b100011 )"
b10 ("
b110 '"
b11 &"
b110111 %"
b1101111 $"
b1100011 #"
b111 ""
b0 !"
b110011 ~
b10011 }
b100 |
b1 {
b11 z
b0 y
b10 x
b11 w
b1 v
b10 u
b0 t
b10 s
b0 r
b1 q
b1 p
b101 o
b11 n
b10 m
b0 l
0k
1j
b1000000 T
b110 S
b1000000 P
b110 O
b11001000 B
b10 A
$end
#0
$dumpvars
b0 D#
bx C#
b0 B#
b101 A#
bx @#
bx ?#
bx >#
bx =#
bx <#
bx ;#
bx :#
bx 9#
bx 8#
bx 7#
bx 6#
bx 5#
bx 4#
bx 3#
bx 2#
bx 1#
bx 0#
bx /#
bx .#
bx -#
bx ,#
bx +#
bx *#
bx )#
bx (#
bx '#
bx &#
b10 %#
bx $#
b101 ##
bx "#
b0 !#
bx ~"
bx }"
b101 |"
b0 ]"
b101 \"
b0 ["
b0 Z"
b101 Y"
b101 X"
b100 9"
b100 8"
07"
bx 6"
b0 5"
b101 4"
b101 3"
bx 2"
bx 1"
00"
b10100000000000100010011 /"
b0 ."
b0 -"
b0 ,"
b100010000100 +"
b0 *"
b10 i
b0 h
b0 g
0f
0e
b10011 d
0c
b0 b
0a
b0 `
1_
b0 ^
0]
1\
b0 [
b101 Z
b0 Y
bx X
0W
bx V
b10100000000000100010011 U
b0 R
b10100000000000100010011 Q
b101 N
bx M
bx L
0K
b101 J
b10100000000000100010011 I
b0 H
bx G
bx F
bx E
1D
0C
b0 @
bx ?
bx >
bx =
bx <
bx ;
bx :
bx 9
bx 8
bx 7
bx 6
bx 5
bx 4
bx 3
bx 2
bx 1
bx 0
bx /
bx .
bx -
bx ,
bx +
bx *
bx )
bx (
bx '
bx &
bx %
bx $
bx #
bx "
bx !
$end
#1
b101 7
b101 8#
1C
#2
0C
#3
1C
#4
b0 E
0D
0C
#5
b1100 Y"
b1100 A#
b1100 J
b1100 N
b1100 Z
b1100 3"
b1100 |"
b1100 4"
b1100 \"
b1100 X"
b1100 ##
b11 %#
b1000 9"
b110000000000000110010011 I
b110000000000000110010011 Q
b110000000000000110010011 U
b110000000000000110010011 /"
b1000 8"
b100 H
b100 R
b100 Y
b100 Z"
1C
#6
b1 E
0C
#7
b11 Y"
b11 A#
b11 J
b11 N
b11 Z
b11 3"
b11 |"
b11111111111111111111111111110111 4"
b11111111111111111111111111110111 \"
b1100 5"
b1100 ]"
b1100 D#
1c
b11111111111111111111111111110111 X"
b11 !#
b10111 ##
b111 %#
b1100 9"
b11111111011100011000001110010011 I
b11111111011100011000001110010011 Q
b11111111011100011000001110010011 U
b11111111011100011000001110010011 /"
b1100 )
b1100 *#
b1100 8"
b1000 H
b1000 R
b1000 Y
b1000 Z"
1C
#8
b10 E
0C
#9
b111 Y"
b111 A#
b111 J
b111 N
b111 Z
b111 3"
b111 |"
bx ^
bx h
bx -"
0_
b1xxx00000100 +"
b11 `
b11 *"
b11 ,"
b11 ["
b101 4"
b101 \"
b11 5"
b11 ]"
b11 D#
b101 F
b101 M
b101 X
b101 2"
b101 C#
b110011 d
b110 b
0c
bx X"
b111 !#
b10 ##
b100 %#
b10000 9"
b1000111110001000110011 I
b1000111110001000110011 Q
b1000111110001000110011 U
b1000111110001000110011 /"
b11 :
b11 ;#
b10000 8"
b1100 H
b1100 R
b1100 Y
b1100 Z"
1C
#10
b11 E
0C
#11
b100 Y"
b100 A#
b100 J
b100 N
b100 Z
b100 3"
b100 |"
b111 4"
b111 \"
b10 `
b10 *"
b10 ,"
b10 ["
b1100 5"
b1100 ]"
b1100 D#
b111 F
b111 M
b111 X
b111 2"
b111 C#
b111 b
b11 !#
b100 ##
b101 %#
b10100 9"
b10000011111001010110011 I
b10000011111001010110011 Q
b10000011111001010110011 U
b10000011111001010110011 /"
b111 ?
b111 @#
b10100 8"
b10000 H
b10000 R
b10000 Y
b10000 Z"
1C
#12
b100 E
0C
#13
b1011 Y"
b1011 A#
b1011 J
b1011 N
b1011 Z
b1011 3"
b1011 |"
b0 `
b0 *"
b0 ,"
b0 ["
b100 5"
b100 ]"
b100 D#
b0 b
b101 !#
b11000 9"
b10000101000001010110011 I
b10000101000001010110011 Q
b10000101000001010110011 U
b10000101000001010110011 /"
b100 8
b100 9#
b11000 8"
b10100 H
b10100 R
b10100 Y
b10100 Z"
1C
#14
b101 E
0C
#15
b110000 X"
b1 `
b1 *"
b1 ,"
b1 ["
0\
b10 ^
b10 h
b10 -"
bx [
bx g
bx ."
1f
b1 i
b11 4"
b11 \"
b1000 Y"
b1000 A#
b1000xx1010 +"
b11 F
b11 M
b11 X
b11 2"
b11 C#
b1000 J
b1000 N
b1000 Z
b1000 3"
b1000 |"
b1100011 d
b111 ##
b10000 %#
b1011 5"
b1011 ]"
b1011 D#
b11100 9"
b10011100101000100001100011 I
b10011100101000100001100011 Q
b10011100101000100001100011 U
b10011100101000100001100011 /"
b1011 8
b1011 9#
b11100 8"
b11000 H
b11000 R
b11000 Y
b11000 Z"
1C
#16
b110 E
0C
#17
1W
b101 `
b101 *"
b101 ,"
b101 ["
b0 Y"
b0 A#
1\
bx ^
bx h
bx -"
b0 [
b0 g
b0 ."
0f
b10 i
b0 J
b0 N
b0 Z
b0 3"
b0 |"
b111 4"
b111 \"
b1xxx00000100 +"
b1100 5"
b1100 ]"
b1100 D#
b111 F
b111 M
b111 X
b111 2"
b111 C#
b110011 d
b10 b
bx X"
b11 !#
b100 ##
b100 %#
b100000 9"
b10000011010001000110011 I
b10000011010001000110011 Q
b10000011010001000110011 U
b10000011010001000110011 /"
b100000 8"
b11100 H
b11100 R
b11100 Y
b11100 Z"
1C
#18
b111 E
0C
#19
b101000 6"
17"
b1000 X"
0\
b10 ^
b10 h
b10 -"
bx [
bx g
bx ."
1f
b1 i
10"
b1000xx1010 +"
b1 `
b1 *"
b1 ,"
b1 ["
b0 5"
b0 ]"
b0 D#
b0 4"
b0 \"
b1100011 d
b0 b
b100 !#
b0 ##
b1000 %#
b0 F
b0 M
b0 X
b0 2"
b0 C#
b101000 9"
b100000010001100011 I
b100000010001100011 Q
b100000010001100011 U
b100000010001100011 /"
b0 ?
b0 @#
b100100 8"
b100000 H
b100000 R
b100000 Y
b100000 Z"
1C
#20
b1000 E
0C
#21
07"
b101 `
b101 *"
b101 ,"
b101 ["
b1 Y"
b1 A#
1\
bx ^
bx h
bx -"
b0 [
b0 g
b0 ."
0f
b10 i
00"
0W
b1 J
b1 N
b1 Z
b1 3"
b1 |"
b101 4"
b101 \"
b1xxx00000100 +"
b11 5"
b11 ]"
b11 D#
b101 F
b101 M
b101 X
b101 2"
b101 C#
b101100 9"
b110011 d
b10 b
bx X"
b111 !#
b10 ##
b100 %#
bx 6"
b1000111010001000110011 I
b1000111010001000110011 Q
b1000111010001000110011 U
b1000111010001000110011 /"
b101100 8"
b101000 H
b101000 R
b101000 Y
b101000 Z"
1C
#22
b1001 E
0C
#23
b1100 Y"
b1100 A#
b1100 J
b1100 N
b1100 Z
b1100 3"
b1100 |"
b1011 4"
b1011 \"
b0 `
b0 *"
b0 ,"
b0 ["
b1 5"
b1 ]"
b1 D#
b1011 F
b1011 M
b1011 X
b1011 2"
b1011 C#
b0 b
b100 !#
b101 ##
b111 %#
b110000 9"
b10100100000001110110011 I
b10100100000001110110011 Q
b10100100000001110110011 U
b10100100000001110110011 /"
b1 ?
b1 @#
b110000 8"
b101100 H
b101100 R
b101100 Y
b101100 Z"
1C
#24
b1010 E
0C
#25
b111 Y"
b111 A#
b1 `
b1 *"
b1 ,"
b1 ["
b111 J
b111 N
b111 Z
b111 3"
b111 |"
b101 4"
b101 \"
1a
b1100 5"
b1100 ]"
b1100 D#
b101 F
b101 M
b101 X
b101 2"
b101 C#
1c
b111 !#
b10 ##
b110100 9"
b1000000001000111000001110110011 I
b1000000001000111000001110110011 Q
b1000000001000111000001110110011 U
b1000000001000111000001110110011 /"
b1100 :
b1100 ;#
b110100 8"
b110000 H
b110000 R
b110000 Y
b110000 Z"
1C
#26
b1011 E
0C
#27
b1010100 X"
0\
b1 ^
b1 h
b1 -"
1_
1K
bx [
bx g
bx ."
b0 i
0W
b1010100 4"
b1010100 \"
b1100000 Y"
b1100000 A#
b111xx0000 +"
b0 `
b0 *"
b0 ,"
b0 ["
0a
b111 F
b111 M
b111 X
b111 2"
b111 C#
b1100000 J
b1100000 N
b1100000 Z
b1100000 3"
b1100000 |"
b100011 d
b10 b
0c
b11 !#
b111 ##
b10100 %#
b1100 5"
b1100 ]"
b1100 D#
b111000 9"
b100011100011010101000100011 I
b100011100011010101000100011 Q
b100011100011010101000100011 U
b100011100011010101000100011 /"
b111 :
b111 ;#
b111000 8"
b110100 H
b110100 R
b110100 Y
b110100 Z"
1C
#28
b1100 E
0C
#29
b111 Y"
b111 A#
1\
b0 ^
b0 h
b0 -"
0K
b1 [
b1 g
b1 ."
b1100000 J
b1100000 N
b1100000 Z
b1100000 3"
b1100000 |"
b100010010000 +"
b1100000 4"
b1100000 \"
b0 5"
b0 ]"
b0 D#
b0 F
b0 M
b0 X
b0 2"
b0 C#
b11 d
b1100000 X"
b0 !#
b0 ##
b10 %#
b111100 9"
b110000000000010000100000011 I
b110000000000010000100000011 Q
b110000000000010000100000011 U
b110000000000010000100000011 /"
b111 G
b111 L
b111 V
b111 1"
b111100 8"
b111000 H
b111000 R
b111000 Y
b111000 Z"
1C
#30
b1101 E
0C
#31
bx G
bx L
bx V
bx 1"
b10010 Y"
b10010 A#
bx ^
bx h
bx -"
0_
b0 [
b0 g
b0 ."
b10 i
b10010 J
b10010 N
b10010 Z
b10010 3"
b10010 |"
b1xxx00000100 +"
b1011 4"
b1011 \"
b111 5"
b111 ]"
b111 D#
b1011 F
b1011 M
b1011 X
b1011 2"
b1011 C#
b110011 d
b0 b
bx X"
b10 !#
b101 ##
b1001 %#
b1000000 9"
b10100010000010010110011 I
b10100010000010010110011 Q
b10100010000010010110011 U
b10100010000010010110011 /"
b111 7
b111 8#
b1000000 8"
b111100 H
b111100 R
b111100 Y
b111100 Z"
1C
#32
b1110 E
0C
#33
b1001000 6"
17"
b1000 X"
1]
b1000100 Y"
b1000100 A#
b11 ^
b11 h
b11 -"
b10 [
b10 g
b10 ."
b0 i
1e
xW
bx J
bx N
bx Z
bx 3"
bx |"
bx 4"
bx \"
b101100100001 +"
b0 5"
b0 ]"
b0 D#
bx F
bx M
bx X
bx 2"
bx C#
b1101111 d
b0 !#
b1000 ##
b11 %#
b1001000 9"
b100000000000000111101111 I
b100000000000000111101111 Q
b100000000000000111101111 U
b100000000000000111101111 /"
b10010 ,
b10010 -#
b1000100 8"
b1000000 H
b1000000 R
b1000000 Y
b1000000 Z"
1C
#34
b1111 E
0C
#35
07"
0]
bx ^
bx h
bx -"
b0 [
b0 g
b0 ."
b10 i
0e
0W
b11001 J
b11001 N
b11001 Z
b11001 3"
b11001 |"
b10010 4"
b10010 \"
b1xxx00000100 +"
b111 5"
b111 ]"
b111 D#
b10010 F
b10010 M
b10010 X
b10010 2"
b10010 C#
b1001100 9"
b110011 d
bx X"
b10 !#
b1001 ##
b10 %#
b11001 Y"
b11001 A#
bx 6"
b100100010000000100110011 I
b100100010000000100110011 Q
b100100010000000100110011 U
b100100010000000100110011 /"
b1000100 )
b1000100 *#
b1001100 8"
b1001000 H
b1001000 R
b1001000 Y
b1001000 Z"
1C
#36
b10000 E
0C
#37
b100000 X"
0\
b1 ^
b1 h
b1 -"
1_
1K
bx [
bx g
bx ."
b0 i
0W
b100000 4"
b100000 \"
b1100100 Y"
b1100100 A#
b111xx0000 +"
b0 `
b0 *"
b0 ,"
b0 ["
b11001 F
b11001 M
b11001 X
b11001 2"
b11001 C#
b1100100 J
b1100100 N
b1100100 Z
b1100100 3"
b1100100 |"
b100011 d
b10 b
b11 !#
b10 ##
b0 %#
b1000100 5"
b1000100 ]"
b1000100 D#
b1010000 9"
b10001000011010000000100011 I
b10001000011010000000100011 Q
b10001000011010000000100011 U
b10001000011010000000100011 /"
b11001 7
b11001 8#
b1010000 8"
b1001100 H
b1001100 R
b1001100 Y
b1001100 Z"
1C
#38
b10001 E
0C
#39
bx Y"
bx A#
1\
b11 ^
b11 h
b11 -"
0K
b0 [
b0 g
b0 ."
xW
bx J
bx N
bx Z
bx 3"
bx |"
b101110000000 +"
b11101111000010111110 4"
b11101111000010111110 \"
bx 5"
bx ]"
bx D#
bx F
bx M
bx X
bx 2"
bx C#
b110111 d
b111 b
b11101111000010111110 X"
b11101 !#
b11110 ##
b10 %#
b1010100 9"
b1011111011101111000100110111 I
b1011111011101111000100110111 Q
b1011111011101111000100110111 U
b1011111011101111000100110111 /"
bx G
bx L
bx V
bx 1"
b1010100 8"
b1010000 H
b1010000 R
b1010000 Y
b1010000 Z"
1C
#40
b10010 E
0C
#41
bx G
bx L
bx V
bx 1"
b1101000 Y"
b1101000 A#
0\
b1 ^
b1 h
b1 -"
1K
bx [
bx g
bx ."
0W
b1101000 J
b1101000 N
b1101000 Z
b1101000 3"
b1101000 |"
b111xx0000 +"
b100100 4"
b100100 \"
b1000100 5"
b1000100 ]"
b1000100 D#
b100011 d
b10 b
b100100 X"
b11 !#
b10 ##
b100 %#
b1011000 9"
b10001000011010001000100011 I
b10001000011010001000100011 Q
b10001000011010001000100011 U
b10001000011010001000100011 /"
bx 7
bx 8#
b1011000 8"
b1010100 H
b1010100 R
b1010100 Y
b1010100 Z"
1C
#42
b10011 E
0C
#43
x7"
x0"
b1 `
b1 *"
b1 ,"
b1 ["
bx Y"
bx A#
b10 ^
b10 h
b10 -"
0_
0K
1f
b1 i
xW
bx J
bx N
bx Z
bx 3"
bx |"
b1000xx1010 +"
bx 4"
bx \"
bx 5"
bx ]"
bx D#
b1100011 d
b0 b
b0 X"
b10 !#
b0 %#
bx 9"
b1000010000000001100011 I
b1000010000000001100011 Q
b1000010000000001100011 U
b1000010000000001100011 /"
b1011100 8"
b1011000 H
b1011000 R
b1011000 Y
b1011000 Z"
1C
#44
b10100 E
0C
#45
x]
x\
bx ^
bx h
bx -"
x_
xK
xf
bx i
xe
bx +"
xa
bx d
bx b
xc
bx X"
bx !#
bx ##
bx %#
bx I
bx Q
bx U
bx /"
bx 8"
bx H
bx R
bx Y
bx Z"
1C
#46
b10101 E
0C
#47
1C
#48
b10110 E
0C
#49
1C
#50
b10111 E
0C
