wave.vcd
$date
	Sat Nov 23 15:19:32 2024
$end
$version
	Icarus Verilog
$end
$timescale
	1s
$end
$scope module ucsbece154a_top_tb $end
$var wire 32 ! MEM_10000000 [31:0] $end
$var wire 32 " MEM_10000004 [31:0] $end
$var wire 32 # MEM_10000008 [31:0] $end
$var wire 32 $ MEM_1000000c [31:0] $end
$var wire 32 % MEM_10000060 [31:0] $end
$var wire 32 & MEM_10000064 [31:0] $end
$var wire 32 ' MEM_10000068 [31:0] $end
$var wire 32 ( MEM_1000006C [31:0] $end
$var wire 32 ) MEM_10000070 [31:0] $end
$var wire 32 * reg_a0 [31:0] $end
$var wire 32 + reg_a1 [31:0] $end
$var wire 32 , reg_a2 [31:0] $end
$var wire 32 - reg_a3 [31:0] $end
$var wire 32 . reg_a4 [31:0] $end
$var wire 32 / reg_a5 [31:0] $end
$var wire 32 0 reg_a6 [31:0] $end
$var wire 32 1 reg_a7 [31:0] $end
$var wire 32 2 reg_gp [31:0] $end
$var wire 32 3 reg_ra [31:0] $end
$var wire 32 4 reg_s0 [31:0] $end
$var wire 32 5 reg_s1 [31:0] $end
$var wire 32 6 reg_s10 [31:0] $end
$var wire 32 7 reg_s11 [31:0] $end
$var wire 32 8 reg_s2 [31:0] $end
$var wire 32 9 reg_s3 [31:0] $end
$var wire 32 : reg_s4 [31:0] $end
$var wire 32 ; reg_s5 [31:0] $end
$var wire 32 < reg_s6 [31:0] $end
$var wire 32 = reg_s7 [31:0] $end
$var wire 32 > reg_s8 [31:0] $end
$var wire 32 ? reg_s9 [31:0] $end
$var wire 32 @ reg_sp [31:0] $end
$var wire 32 A reg_t0 [31:0] $end
$var wire 32 B reg_t1 [31:0] $end
$var wire 32 C reg_t2 [31:0] $end
$var wire 32 D reg_t3 [31:0] $end
$var wire 32 E reg_t4 [31:0] $end
$var wire 32 F reg_t5 [31:0] $end
$var wire 32 G reg_t6 [31:0] $end
$var wire 32 H reg_tp [31:0] $end
$var wire 32 I reg_zero [31:0] $end
$var reg 1 J clk $end
$var reg 32 K cycle [31:0] $end
$var reg 32 L i [31:0] $end
$var reg 1 M reset $end
$scope module top $end
$var wire 1 J clk $end
$var wire 1 M reset $end
$var wire 1 N we $end
$var wire 32 O wd [31:0] $end
$var wire 32 P rd [31:0] $end
$var wire 32 Q a [31:0] $end
$scope module mem $end
$var wire 1 J clk $end
$var wire 32 R data_data [31:0] $end
$var wire 1 S data_enable $end
$var wire 32 T text_data [31:0] $end
$var wire 1 U text_enable $end
$var wire 1 N we_i $end
$var wire 32 V wd_i [31:0] $end
$var wire 6 W text_address [5:0] $end
$var wire 32 X rd_o [31:0] $end
$var wire 6 Y data_address [5:0] $end
$var wire 32 Z a_i [31:0] $end
$var parameter 32 [ DATA_ADDRESS_WIDTH $end
$var parameter 65 \ DATA_END $end
$var parameter 32 ] DATA_SIZE $end
$var parameter 32 ^ DATA_START $end
$var parameter 32 _ TEXT_ADDRESS_WIDTH $end
$var parameter 65 ` TEXT_END $end
$var parameter 32 a TEXT_SIZE $end
$var parameter 32 b TEXT_START $end
$upscope $end
$scope module riscv $end
$var wire 32 c ReadData_i [31:0] $end
$var wire 1 J clk $end
$var wire 1 M reset $end
$var wire 1 d zero $end
$var wire 7 e op [6:0] $end
$var wire 1 f funct7 $end
$var wire 3 g funct3 [2:0] $end
$var wire 32 h WriteData_o [31:0] $end
$var wire 2 i ResultSrc [1:0] $end
$var wire 1 j RegWrite $end
$var wire 1 k PCEn $end
$var wire 1 N MemWrite_o $end
$var wire 3 l ImmSrc [2:0] $end
$var wire 1 m IRWrite $end
$var wire 32 n Adr_o [31:0] $end
$var wire 1 o AdrSrc $end
$var wire 2 p ALUSrcB [1:0] $end
$var wire 2 q ALUSrcA [1:0] $end
$var wire 3 r ALUControl [2:0] $end
$scope module c $end
$var wire 1 k PCWrite_o $end
$var wire 1 s RtypeSub $end
$var wire 1 J clk $end
$var wire 1 M reset $end
$var wire 1 d zero_i $end
$var wire 7 t op_i [6:0] $end
$var wire 1 f funct7_i $end
$var wire 3 u funct3_i [2:0] $end
$var wire 2 v ResultSrc_next [1:0] $end
$var wire 1 w RegWrite_next $end
$var wire 1 x PCUpdate_next $end
$var wire 1 y MemWrite_next $end
$var wire 1 z IRWrite_next $end
$var wire 1 { Branch_next $end
$var wire 1 | AdrSrc_next $end
$var wire 2 } ALUSrcB_next [1:0] $end
$var wire 2 ~ ALUSrcA_next [1:0] $end
$var wire 2 !" ALUOp_next [1:0] $end
$var parameter 2 "" ALUSrcA_oldpc $end
$var parameter 2 #" ALUSrcA_pc $end
$var parameter 2 $" ALUSrcA_reg $end
$var parameter 2 %" ALUSrcB_4 $end
$var parameter 2 &" ALUSrcB_imm $end
$var parameter 2 '" ALUSrcB_reg $end
$var parameter 3 (" ALUcontrol_add $end
$var parameter 3 )" ALUcontrol_and $end
$var parameter 3 *" ALUcontrol_or $end
$var parameter 3 +" ALUcontrol_slt $end
$var parameter 3 ," ALUcontrol_sub $end
$var parameter 2 -" ALUop_beq $end
$var parameter 2 ." ALUop_mem $end
$var parameter 2 /" ALUop_other $end
$var parameter 2 0" ResultSrc_aluout $end
$var parameter 2 1" ResultSrc_aluresult $end
$var parameter 2 2" ResultSrc_data $end
$var parameter 2 3" ResultSrc_lui $end
$var parameter 3 4" imm_Btype $end
$var parameter 3 5" imm_Itype $end
$var parameter 3 6" imm_Jtype $end
$var parameter 3 7" imm_Stype $end
$var parameter 3 8" imm_Utype $end
$var parameter 7 9" instr_ItypeALU_op $end
$var parameter 7 :" instr_Rtype_op $end
$var parameter 3 ;" instr_addsub_funct3 $end
$var parameter 3 <" instr_and_funct3 $end
$var parameter 7 =" instr_beq_op $end
$var parameter 7 >" instr_jal_op $end
$var parameter 7 ?" instr_lui_op $end
$var parameter 7 @" instr_lw_op $end
$var parameter 3 A" instr_or_funct3 $end
$var parameter 3 B" instr_slt_funct3 $end
$var parameter 7 C" instr_sw_op $end
$var parameter 32 D" pc_start $end
$var parameter 4 E" state_ALUWB $end
$var parameter 4 F" state_BEQ $end
$var parameter 4 G" state_Decode $end
$var parameter 4 H" state_ExecuteI $end
$var parameter 4 I" state_ExecuteR $end
$var parameter 4 J" state_Fetch $end
$var parameter 4 K" state_JAL $end
$var parameter 4 L" state_LUI $end
$var parameter 4 M" state_MemAdr $end
$var parameter 4 N" state_MemRead $end
$var parameter 4 O" state_MemWB $end
$var parameter 4 P" state_MemWrite $end
$var reg 3 Q" ALUControl_o [2:0] $end
$var reg 2 R" ALUOp [1:0] $end
$var reg 2 S" ALUSrcA_o [1:0] $end
$var reg 2 T" ALUSrcB_o [1:0] $end
$var reg 1 o AdrSrc_o $end
$var reg 1 U" Branch $end
$var reg 1 m IRWrite_o $end
$var reg 3 V" ImmSrc_o [2:0] $end
$var reg 1 N MemWrite_o $end
$var reg 1 W" PCUpdate $end
$var reg 1 j RegWrite_o $end
$var reg 2 X" ResultSrc_o [1:0] $end
$var reg 14 Y" controls_next [13:0] $end
$var reg 4 Z" state [3:0] $end
$var reg 4 [" state_next [3:0] $end
$upscope $end
$scope module dp $end
$var wire 3 \" ALUControl_i [2:0] $end
$var wire 2 ]" ALUSrcA_i [1:0] $end
$var wire 2 ^" ALUSrcB_i [1:0] $end
$var wire 1 o AdrSrc_i $end
$var wire 1 m IRWrite_i $end
$var wire 3 _" ImmSrc_i [2:0] $end
$var wire 1 k PCEn_i $end
$var wire 32 `" ReadData_i [31:0] $end
$var wire 1 j RegWrite_i $end
$var wire 2 a" ResultSrc_i [1:0] $end
$var wire 32 b" WriteData_o [31:0] $end
$var wire 1 J clk $end
$var wire 1 M reset $end
$var wire 1 d zero_o $end
$var wire 32 c" rd2 [31:0] $end
$var wire 32 d" rd1 [31:0] $end
$var wire 7 e" op_o [6:0] $end
$var wire 1 f funct7_o $end
$var wire 3 f" funct3_o [2:0] $end
$var wire 5 g" a3 [4:0] $end
$var wire 5 h" a2 [4:0] $end
$var wire 5 i" a1 [4:0] $end
$var wire 32 j" Adr_o [31:0] $end
$var wire 32 k" ALUResult [31:0] $end
$var parameter 2 l" ALUSrcA_oldpc $end
$var parameter 2 m" ALUSrcA_pc $end
$var parameter 2 n" ALUSrcA_reg $end
$var parameter 2 o" ALUSrcB_4 $end
$var parameter 2 p" ALUSrcB_imm $end
$var parameter 2 q" ALUSrcB_reg $end
$var parameter 3 r" ALUcontrol_add $end
$var parameter 3 s" ALUcontrol_and $end
$var parameter 3 t" ALUcontrol_or $end
$var parameter 3 u" ALUcontrol_slt $end
$var parameter 3 v" ALUcontrol_sub $end
$var parameter 2 w" ALUop_beq $end
$var parameter 2 x" ALUop_mem $end
$var parameter 2 y" ALUop_other $end
$var parameter 2 z" ResultSrc_aluout $end
$var parameter 2 {" ResultSrc_aluresult $end
$var parameter 2 |" ResultSrc_data $end
$var parameter 2 }" ResultSrc_lui $end
$var parameter 3 ~" imm_Btype $end
$var parameter 3 !# imm_Itype $end
$var parameter 3 "# imm_Jtype $end
$var parameter 3 ## imm_Stype $end
$var parameter 3 $# imm_Utype $end
$var parameter 7 %# instr_ItypeALU_op $end
$var parameter 7 &# instr_Rtype_op $end
$var parameter 3 '# instr_addsub_funct3 $end
$var parameter 3 (# instr_and_funct3 $end
$var parameter 7 )# instr_beq_op $end
$var parameter 7 *# instr_jal_op $end
$var parameter 7 +# instr_lui_op $end
$var parameter 7 ,# instr_lw_op $end
$var parameter 3 -# instr_or_funct3 $end
$var parameter 3 .# instr_slt_funct3 $end
$var parameter 7 /# instr_sw_op $end
$var parameter 32 0# pc_start $end
$var parameter 4 1# state_ALUWB $end
$var parameter 4 2# state_BEQ $end
$var parameter 4 3# state_Decode $end
$var parameter 4 4# state_ExecuteI $end
$var parameter 4 5# state_ExecuteR $end
$var parameter 4 6# state_Fetch $end
$var parameter 4 7# state_JAL $end
$var parameter 4 8# state_LUI $end
$var parameter 4 9# state_MemAdr $end
$var parameter 4 :# state_MemRead $end
$var parameter 4 ;# state_MemWB $end
$var parameter 4 <# state_MemWrite $end
$var reg 32 =# A [31:0] $end
$var reg 32 ># ALUout [31:0] $end
$var reg 32 ?# B [31:0] $end
$var reg 32 @# Data [31:0] $end
$var reg 32 A# ImmExt [31:0] $end
$var reg 32 B# Instr [31:0] $end
$var reg 32 C# OldPC [31:0] $end
$var reg 32 D# PC [31:0] $end
$var reg 32 E# Result [31:0] $end
$var reg 32 F# SrcA [31:0] $end
$var reg 32 G# SrcB [31:0] $end
$scope module alu $end
$var wire 32 H# a_i [31:0] $end
$var wire 3 I# alucontrol_i [2:0] $end
$var wire 32 J# b_i [31:0] $end
$var wire 1 d zero_o $end
$var parameter 2 K# ALUSrcA_oldpc $end
$var parameter 2 L# ALUSrcA_pc $end
$var parameter 2 M# ALUSrcA_reg $end
$var parameter 2 N# ALUSrcB_4 $end
$var parameter 2 O# ALUSrcB_imm $end
$var parameter 2 P# ALUSrcB_reg $end
$var parameter 3 Q# ALUcontrol_add $end
$var parameter 3 R# ALUcontrol_and $end
$var parameter 3 S# ALUcontrol_or $end
$var parameter 3 T# ALUcontrol_slt $end
$var parameter 3 U# ALUcontrol_sub $end
$var parameter 2 V# ALUop_beq $end
$var parameter 2 W# ALUop_mem $end
$var parameter 2 X# ALUop_other $end
$var parameter 2 Y# ResultSrc_aluout $end
$var parameter 2 Z# ResultSrc_aluresult $end
$var parameter 2 [# ResultSrc_data $end
$var parameter 2 \# ResultSrc_lui $end
$var parameter 3 ]# imm_Btype $end
$var parameter 3 ^# imm_Itype $end
$var parameter 3 _# imm_Jtype $end
$var parameter 3 `# imm_Stype $end
$var parameter 3 a# imm_Utype $end
$var parameter 7 b# instr_ItypeALU_op $end
$var parameter 7 c# instr_Rtype_op $end
$var parameter 3 d# instr_addsub_funct3 $end
$var parameter 3 e# instr_and_funct3 $end
$var parameter 7 f# instr_beq_op $end
$var parameter 7 g# instr_jal_op $end
$var parameter 7 h# instr_lui_op $end
$var parameter 7 i# instr_lw_op $end
$var parameter 3 j# instr_or_funct3 $end
$var parameter 3 k# instr_slt_funct3 $end
$var parameter 7 l# instr_sw_op $end
$var parameter 32 m# pc_start $end
$var parameter 4 n# state_ALUWB $end
$var parameter 4 o# state_BEQ $end
$var parameter 4 p# state_Decode $end
$var parameter 4 q# state_ExecuteI $end
$var parameter 4 r# state_ExecuteR $end
$var parameter 4 s# state_Fetch $end
$var parameter 4 t# state_JAL $end
$var parameter 4 u# state_LUI $end
$var parameter 4 v# state_MemAdr $end
$var parameter 4 w# state_MemRead $end
$var parameter 4 x# state_MemWB $end
$var parameter 4 y# state_MemWrite $end
$var reg 32 z# result_o [31:0] $end
$upscope $end
$scope module rf $end
$var wire 32 {# a0 [31:0] $end
$var wire 32 |# a1 [31:0] $end
$var wire 5 }# a1_i [4:0] $end
$var wire 32 ~# a2 [31:0] $end
$var wire 5 !$ a2_i [4:0] $end
$var wire 32 "$ a3 [31:0] $end
$var wire 5 #$ a3_i [4:0] $end
$var wire 32 $$ a4 [31:0] $end
$var wire 32 %$ a5 [31:0] $end
$var wire 32 &$ a6 [31:0] $end
$var wire 32 '$ a7 [31:0] $end
$var wire 1 J clk $end
$var wire 32 ($ gp [31:0] $end
$var wire 32 )$ ra [31:0] $end
$var wire 32 *$ rd1_o [31:0] $end
$var wire 32 +$ rd2_o [31:0] $end
$var wire 32 ,$ s0 [31:0] $end
$var wire 32 -$ s1 [31:0] $end
$var wire 32 .$ s10 [31:0] $end
$var wire 32 /$ s11 [31:0] $end
$var wire 32 0$ s2 [31:0] $end
$var wire 32 1$ s3 [31:0] $end
$var wire 32 2$ s4 [31:0] $end
$var wire 32 3$ s5 [31:0] $end
$var wire 32 4$ s6 [31:0] $end
$var wire 32 5$ s7 [31:0] $end
$var wire 32 6$ s8 [31:0] $end
$var wire 32 7$ s9 [31:0] $end
$var wire 32 8$ sp [31:0] $end
$var wire 32 9$ t0 [31:0] $end
$var wire 32 :$ t1 [31:0] $end
$var wire 32 ;$ t2 [31:0] $end
$var wire 32 <$ t3 [31:0] $end
$var wire 32 =$ t4 [31:0] $end
$var wire 32 >$ t5 [31:0] $end
$var wire 32 ?$ t6 [31:0] $end
$var wire 32 @$ tp [31:0] $end
$var wire 32 A$ wd3_i [31:0] $end
$var wire 1 j we3_i $end
$var wire 32 B$ zero [31:0] $end
$upscope $end
$upscope $end
$upscope $end
$upscope $end
$upscope $end
$enddefinitions $end
$comment Show the parameter values. $end
$dumpall
b101 y#
b100 x#
b11 w#
b10 v#
b1011 u#
b1001 t#
b0 s#
b110 r#
b1000 q#
b1 p#
b1010 o#
b111 n#
b10000000000000000 m#
b100011 l#
b10 k#
b110 j#
b11 i#
b110111 h#
b1101111 g#
b1100011 f#
b111 e#
b0 d#
b110011 c#
b10011 b#
b100 a#
b1 `#
b11 _#
b0 ^#
b10 ]#
b11 \#
b1 [#
b10 Z#
b0 Y#
b10 X#
b0 W#
b1 V#
b1 U#
b101 T#
b11 S#
b10 R#
b0 Q#
b0 P#
b1 O#
b10 N#
b10 M#
b0 L#
b1 K#
b101 <#
b100 ;#
b11 :#
b10 9#
b1011 8#
b1001 7#
b0 6#
b110 5#
b1000 4#
b1 3#
b1010 2#
b111 1#
b10000000000000000 0#
b100011 /#
b10 .#
b110 -#
b11 ,#
b110111 +#
b1101111 *#
b1100011 )#
b111 (#
b0 '#
b110011 &#
b10011 %#
b100 $#
b1 ##
b11 "#
b0 !#
b10 ~"
b11 }"
b1 |"
b10 {"
b0 z"
b10 y"
b0 x"
b1 w"
b1 v"
b101 u"
b11 t"
b10 s"
b0 r"
b0 q"
b1 p"
b10 o"
b10 n"
b0 m"
b1 l"
b101 P"
b100 O"
b11 N"
b10 M"
b1011 L"
b1001 K"
b0 J"
b110 I"
b1000 H"
b1 G"
b1010 F"
b111 E"
b10000000000000000 D"
b100011 C"
b10 B"
b110 A"
b11 @"
b110111 ?"
b1101111 >"
b1100011 ="
b111 <"
b0 ;"
b110011 :"
b10011 9"
b100 8"
b1 7"
b11 6"
b0 5"
b10 4"
b11 3"
b1 2"
b10 1"
b0 0"
b10 /"
b0 ."
b1 -"
b1 ,"
b101 +"
b11 *"
b10 )"
b0 ("
b0 '"
b1 &"
b10 %"
b10 $"
b0 #"
b1 ""
b10000000000000000 b
b1000000 a
b10000000100000000 `
b110 _
b10000000000000000000000000000 ^
b1000000 ]
b10000000000000000000100000000 \
b110 [
$end
#0
$dumpvars
b0 B$
bx A$
bx @$
bx ?$
bx >$
bx =$
bx <$
bx ;$
bx :$
bx 9$
bx 8$
bx 7$
bx 6$
bx 5$
bx 4$
bx 3$
bx 2$
bx 1$
bx 0$
bx /$
bx .$
bx -$
bx ,$
bx +$
bx *$
bx )$
bx ($
bx '$
bx &$
bx %$
bx $$
bx #$
bx "$
bx !$
bx ~#
bx }#
bx |#
bx {#
bx z#
bx J#
bx I#
bx H#
bx G#
bx F#
bx E#
bx D#
bx C#
bx B#
bx A#
bx @#
bx ?#
bx >#
bx =#
bx k"
bx j"
bx i"
bx h"
bx g"
bx f"
bx e"
bx d"
bx c"
bx b"
bx a"
bx `"
bx _"
bx ^"
bx ]"
bx \"
bx ["
bx Z"
bx Y"
bx X"
xW"
bx V"
xU"
bx T"
bx S"
bx R"
bx Q"
bx !"
bx ~
bx }
x|
x{
xz
xy
xx
xw
bx v
bx u
bx t
xs
bx r
bx q
bx p
xo
bx n
xm
bx l
xk
xj
bx i
bx h
bx g
xf
bx e
xd
bx c
bx Z
bx Y
bx X
bx W
bx V
xU
bx T
xS
bx R
bx Q
bx P
bx O
xN
0M
bx L
bx K
1J
b0 I
bx H
bx G
bx F
bx E
bx D
bx C
bx B
bx A
bx @
bx ?
bx >
bx =
bx <
bx ;
bx :
bx 9
bx 8
bx 7
bx 6
bx 5
bx 4
bx 3
bx 2
bx 1
bx 0
bx /
bx .
bx -
bx ,
bx +
bx *
bx )
bx (
bx '
bx &
bx %
bx $
bx #
bx "
bx !
$end
#1
1x
0y
1z
0w
b0 ~
b10 }
0|
b10 v
b0 !"
b1x010001001000 Y"
b0 ["
b0 K
1M
0J
#2
b10100000000000100010011 P
b10100000000000100010011 X
b10100000000000100010011 c
b10100000000000100010011 `"
b10000000000000100 E#
b10000000000000100 A$
b0 Y
b10100000000000100010011 T
b0 W
0S
1U
0d
b10000000000000100 k"
b10000000000000100 z#
b0 r
b0 Q"
b0 \"
b0 I#
b10000000000000000 Q
b10000000000000000 Z
b10000000000000000 n
b10000000000000000 j"
b100 G#
b100 J#
b10000000000000000 F#
b10000000000000000 H#
1k
b10000000000000000 D#
b0 R"
b10 i
b10 X"
b10 a"
0o
b10 p
b10 T"
b10 ^"
b0 q
b0 S"
b0 ]"
0j
1m
0N
1W"
b0 Z"
b1 K
1J
#3
0x
0{
0z
b1 ~
b1 }
x|
bx v
b101xxx00 Y"
b1 ["
b0 L
0M
0J
#4
xS
xU
b10 ~
b10 !"
b101 A#
b10000000000000101 E#
b10000000000000101 A$
bx P
bx X
bx c
bx `"
b1001xxx10 Y"
0s
b0 l
b0 V"
b0 _"
0d
b10000000000000101 k"
b10000000000000101 z#
b1 Y
b110000000000000110010011 T
b1 W
0k
b1000 ["
b0 d"
b0 *$
b0 i"
b0 }#
b101 h"
b101 !$
b10 g"
b10 #$
b0 g
b0 u
b0 f"
0f
b10011 e
b10011 t
b10011 e"
b101 G#
b101 J#
b1000000000000010x Q
b1000000000000010x Z
b1000000000000010x n
b1000000000000010x j"
bx i
bx X"
bx a"
xo
b1 p
b1 T"
b1 ^"
b1 q
b1 S"
b1 ]"
0m
0U"
0W"
b1 Z"
b10000000000000100 >#
b10100000000000100010011 @#
b10100000000000100010011 B#
b10000000000000000 C#
b10000000000000100 D#
b10 K
1J
#5
b1 L
0J
#6
b0x000000000000010x Q
b0x000000000000010x Z
b0x000000000000010x n
b0x000000000000010x j"
b101 E#
b101 A$
1w
bx ~
bx }
b0 v
bx !"
b101 k"
b101 z#
b1xxxxx00xx Y"
b0 F#
b0 H#
b111 ["
b10000000000000101 >#
b0 =#
bx @#
b10 R"
b10 q
b10 S"
b10 ]"
b1000 Z"
b11 K
1J
#7
b10 L
0J
#8
1x
x{
1z
0w
b0 ~
b10 }
0|
b10 v
b0 !"
xd
bx k"
bx z#
b1x010001001000 Y"
bx r
bx Q"
bx \"
bx I#
b0 ["
bx R"
b0 i
b0 X"
b0 a"
bx p
bx T"
bx ^"
bx q
bx S"
bx ]"
1j
b111 Z"
b101 >#
b100 K
1J
#9
b11 L
0J
#10
b110000000000000110010011 P
b110000000000000110010011 X
b110000000000000110010011 c
b110000000000000110010011 `"
0x
0{
0z
b1 ~
b1 }
x|
bx v
0S
1U
0d
b10000000000001000 k"
b10000000000001000 z#
b101xxx00 Y"
b0 r
b0 Q"
b0 \"
b0 I#
b10000000000000100 Q
b10000000000000100 Z
b10000000000000100 n
b10000000000000100 j"
b10000000000001000 E#
b10000000000001000 A$
b100 G#
b100 J#
b10000000000000100 F#
b10000000000000100 H#
1k
b1 ["
bx >#
b101 @
b101 8$
b0 R"
b10 i
b10 X"
b10 a"
0o
b10 p
b10 T"
b10 ^"
b0 q
b0 S"
b0 ]"
0j
1m
xU"
1W"
b0 Z"
b101 K
1J
#11
b100 L
0J
#12
xS
xU
b10 ~
b10 !"
bx P
bx X
bx c
bx `"
b1001xxx10 Y"
b10000000000010000 E#
b10000000000010000 A$
b10000000000010000 k"
b10000000000010000 z#
bx Y
bx T
bx W
0k
b1000 ["
b1100 A#
b1100 h"
b1100 !$
b11 g"
b11 #$
b1100 G#
b1100 J#
b100000000000xx000 Q
b100000000000xx000 Z
b100000000000xx000 n
b100000000000xx000 j"
bx i
bx X"
bx a"
xo
b1 p
b1 T"
b1 ^"
b1 q
b1 S"
b1 ]"
0m
0U"
0W"
b1 Z"
b10000000000001000 >#
b110000000000000110010011 @#
b110000000000000110010011 B#
b10000000000000100 C#
b10000000000001000 D#
b110 K
1J
#13
b101 L
0J
#14
b0x0000000000001x00 Q
b0x0000000000001x00 Z
b0x0000000000001x00 n
b0x0000000000001x00 j"
b1100 E#
b1100 A$
1w
bx ~
bx }
b0 v
bx !"
b1100 k"
b1100 z#
b1xxxxx00xx Y"
b0 F#
b0 H#
b111 ["
b10000000000010000 >#
bx @#
b10 R"
b10 q
b10 S"
b10 ]"
b1000 Z"
b111 K
1J
#15
b110 L
0J
#16
1x
x{
1z
0w
b0 ~
b10 }
0|
b10 v
b0 !"
xd
bx k"
bx z#
b1x010001001000 Y"
bx r
bx Q"
bx \"
bx I#
b0 ["
bx R"
b0 i
b0 X"
b0 a"
bx p
bx T"
bx ^"
bx q
bx S"
bx ]"
1j
b111 Z"
b1100 >#
b1000 K
1J
#17
b111 L
0J
#18
b11111111011100011000001110010011 P
b11111111011100011000001110010011 X
b11111111011100011000001110010011 c
b11111111011100011000001110010011 `"
0x
0{
0z
b1 ~
b1 }
x|
bx v
b10 Y
b11111111011100011000001110010011 T
b10 W
0S
1U
0d
b10000000000001100 k"
b10000000000001100 z#
b101xxx00 Y"
b0 r
b0 Q"
b0 \"
b0 I#
b10000000000001000 Q
b10000000000001000 Z
b10000000000001000 n
b10000000000001000 j"
b10000000000001100 E#
b10000000000001100 A$
b100 G#
b100 J#
b10000000000001000 F#
b10000000000001000 H#
1k
b1 ["
bx >#
b1100 2
b1100 ($
b0 R"
b10 i
b10 X"
b10 a"
0o
b10 p
b10 T"
b10 ^"
b0 q
b0 S"
b0 ]"
0j
1m
xU"
1W"
b0 Z"
b1001 K
1J
#19
b1000 L
0J
#20
xS
xU
b10 ~
b10 !"
bx P
bx X
bx c
bx `"
b1001xxx10 Y"
b1111111111111111 E#
b1111111111111111 A$
b1111111111111111 k"
b1111111111111111 z#
bx Y
bx T
bx W
0k
b1000 ["
b11111111111111111111111111110111 A#
b1100 d"
b1100 *$
b11 i"
b11 }#
b10111 h"
b10111 !$
b111 g"
b111 #$
1f
b11111111111111111111111111110111 G#
b11111111111111111111111111110111 J#
b0xxxxxxxxxxxxx11xx Q
b0xxxxxxxxxxxxx11xx Z
b0xxxxxxxxxxxxx11xx n
b0xxxxxxxxxxxxx11xx j"
bx i
bx X"
bx a"
xo
b1 p
b1 T"
b1 ^"
b1 q
b1 S"
b1 ]"
0m
0U"
0W"
b1 Z"
b10000000000001100 >#
b11111111011100011000001110010011 @#
b11111111011100011000001110010011 B#
b10000000000001000 C#
b10000000000001100 D#
b1010 K
1J
#21
b1001 L
0J
#22
b0x000000000000xxxx Q
b0x000000000000xxxx Z
b0x000000000000xxxx n
b0x000000000000xxxx j"
b11 E#
b11 A$
1w
bx ~
bx }
b0 v
bx !"
b11 k"
b11 z#
b1xxxxx00xx Y"
b1100 F#
b1100 H#
b111 ["
b1111111111111111 >#
b1100 =#
bx @#
b10 R"
b10 q
b10 S"
b10 ]"
b1000 Z"
b1011 K
1J
#23
b1010 L
0J
#24
1x
x{
1z
0w
b0 ~
b10 }
0|
b10 v
b0 !"
xd
bx k"
bx z#
b1x010001001000 Y"
bx r
bx Q"
bx \"
bx I#
b0 ["
bx R"
b0 i
b0 X"
b0 a"
bx p
bx T"
bx ^"
bx q
bx S"
bx ]"
1j
b111 Z"
b11 >#
b1100 K
1J
#25
b1011 L
0J
#26
b1000111110001000110011 P
b1000111110001000110011 X
b1000111110001000110011 c
b1000111110001000110011 `"
0x
0{
0z
b1 ~
b1 }
x|
bx v
b11 Y
b1000111110001000110011 T
b11 W
0S
1U
0d
b10000000000010000 k"
b10000000000010000 z#
b101xxx00 Y"
b0 r
b0 Q"
b0 \"
b0 I#
b10000000000001100 Q
b10000000000001100 Z
b10000000000001100 n
b10000000000001100 j"
b10000000000010000 E#
b10000000000010000 A$
b100 G#
b100 J#
b10000000000001100 F#
b10000000000001100 H#
1k
b1 ["
bx >#
b11 C
b11 ;$
b0 R"
b10 i
b10 X"
b10 a"
0o
b10 p
b10 T"
b10 ^"
b0 q
b0 S"
b0 ]"
0j
1m
xU"
1W"
b0 Z"
b1101 K
1J
#27
b1100 L
0J
#28
xd
xS
xU
b10 ~
b0 }
b10 !"
bx P
bx X
bx c
bx `"
b1000xxx10 Y"
bx E#
bx A$
bx l
bx V"
bx _"
bx k"
bx z#
bx Y
bx T
bx W
0k
b110 ["
bx A#
b11 d"
b11 *$
b111 i"
b111 }#
b101 O
b101 V
b101 h
b101 b"
b101 c"
b101 +$
b10 h"
b10 !$
b100 g"
b100 #$
b110 g
b110 u
b110 f"
0f
b110011 e
b110011 t
b110011 e"
bx G#
bx J#
bx Q
bx Z
bx n
bx j"
bx i
bx X"
bx a"
xo
b1 p
b1 T"
b1 ^"
b1 q
b1 S"
b1 ]"
0m
0U"
0W"
b1 Z"
b10000000000010000 >#
b1000111110001000110011 @#
b1000111110001000110011 B#
b10000000000001100 C#
b10000000000010000 D#
b1110 K
1J
#29
b1101 L
0J
#30
b0x00000000000x0xxx Q
b0x00000000000x0xxx Z
b0x00000000000x0xxx n
b0x00000000000x0xxx j"
b111 E#
b111 A$
1w
bx ~
bx }
b0 v
bx !"
0d
b111 k"
b111 z#
b1xxxxx00xx Y"
b11 r
b11 Q"
b11 \"
b11 I#
b101 G#
b101 J#
b11 F#
b11 H#
b111 ["
bx >#
b101 ?#
b11 =#
bx @#
b10 R"
b0 p
b0 T"
b0 ^"
b10 q
b10 S"
b10 ]"
b110 Z"
b1111 K
1J
#31
b1110 L
0J
#32
1x
x{
1z
0w
b0 ~
b10 }
0|
b10 v
b0 !"
xd
bx k"
bx z#
b1x010001001000 Y"
bx r
bx Q"
bx \"
bx I#
b0 ["
bx R"
b0 i
b0 X"
b0 a"
bx p
bx T"
bx ^"
bx q
bx S"
bx ]"
1j
b111 Z"
b111 >#
b10000 K
1J
#33
b1111 L
0J
#34
b10000011111001010110011 P
b10000011111001010110011 X
b10000011111001010110011 c
b10000011111001010110011 `"
0x
0{
0z
b1 ~
b1 }
x|
bx v
b100 Y
b10000011111001010110011 T
b100 W
0S
1U
0d
b10000000000010100 k"
b10000000000010100 z#
b101xxx00 Y"
b0 r
b0 Q"
b0 \"
b0 I#
b10000000000010000 Q
b10000000000010000 Z
b10000000000010000 n
b10000000000010000 j"
b10000000000010100 E#
b10000000000010100 A$
b100 G#
b100 J#
b10000000000010000 F#
b10000000000010000 H#
1k
b1 ["
bx >#
b111 H
b111 @$
b0 R"
b10 i
b10 X"
b10 a"
0o
b10 p
b10 T"
b10 ^"
b0 q
b0 S"
b0 ]"
0j
1m
xU"
1W"
b0 Z"
b10001 K
1J
#35
b10000 L
0J
#36
xS
xU
b10 ~
b0 }
b10 !"
bx E#
bx A$
bx P
bx X
bx c
bx `"
b1000xxx10 Y"
xd
bx k"
bx z#
bx Y
bx T
bx W
0k
b110 ["
b1100 d"
b1100 *$
b11 i"
b11 }#
b111 O
b111 V
b111 h
b111 b"
b111 c"
b111 +$
b100 h"
b100 !$
b101 g"
b101 #$
b111 g
b111 u
b111 f"
bx G#
bx J#
bx Q
bx Z
bx n
bx j"
bx i
bx X"
bx a"
xo
b1 p
b1 T"
b1 ^"
b1 q
b1 S"
b1 ]"
0m
0U"
0W"
b1 Z"
b10000000000010100 >#
b10000011111001010110011 @#
b10000011111001010110011 B#
b10000000000010000 C#
b10000000000010100 D#
b10010 K
1J
#37
b10001 L
0J
